…
Let’s start with a `for` loop!

``` r
output = vector("list", length = 100)

for (i in 1:100) {
  
  output[[i]] = sim_mean_sd(n_obs = 30)
  
}

bind_rows(output)
```

    ## # A tibble: 100 × 2
    ##    mu_hat sigma_hat
    ##     <dbl>     <dbl>
    ##  1  3.34       3.64
    ##  2  2.63       3.08
    ##  3  1.71       2.67
    ##  4  1.78       2.70
    ##  5  1.68       2.00
    ##  6  2.44       3.49
    ##  7  1.25       3.31
    ##  8  0.183      2.95
    ##  9  2.51       3.04
    ## 10  0.765      3.42
    ## # … with 90 more rows
…
